…
``` r
flow_sample %>% 
  group_by(year)%>%
  summarize(mean_flow_year=mean(flow,na.rm=TRUE),n = n())
```

    ## # A tibble: 109 × 3
    ##     year mean_flow_year     n
    ##    <dbl>          <dbl> <int>
    ##  1  1909          314       2
    ##  2  1910          230       2
    ##  3  1911          135.      2
    ##  4  1912           89.9     2
    ##  5  1913          119.      2
    ##  6  1914          111.      2
    ##  7  1915          121.      2
    ##  8  1916          158.      2
    ##  9  1917           90.0     2
    ## 10  1918          176.      2
    ## # ℹ 99 more rows
…
