…
``` r
cancer_modified<-cancer_sample %>% 
   mutate(texture_level = factor(case_when(texture_mean < 12 ~ "low",
                                 texture_mean < 18 ~ "moderate",
                                 texture_mean< 24~"high",
                                 TRUE ~ "very high"),
                      levels = c('low', 'moderate', 'high', 'very high')))
#confirmed texture_level is created and show the counts in each level 
cancer_modified #printing table
```

    ## # A tibble: 569 × 33
    ##          ID diagnosis radius_mean texture_mean perimeter_mean area_mean
    ##       <dbl> <chr>           <dbl>        <dbl>          <dbl>     <dbl>
    ##  1   842302 M                18.0         10.4          123.      1001 
    ##  2   842517 M                20.6         17.8          133.      1326 
    ##  3 84300903 M                19.7         21.2          130       1203 
    ##  4 84348301 M                11.4         20.4           77.6      386.
    ##  5 84358402 M                20.3         14.3          135.      1297 
    ##  6   843786 M                12.4         15.7           82.6      477.
    ##  7   844359 M                18.2         20.0          120.      1040 
    ##  8 84458202 M                13.7         20.8           90.2      578.
    ##  9   844981 M                13           21.8           87.5      520.
    ## 10 84501001 M                12.5         24.0           84.0      476.
    ## # ℹ 559 more rows
    ## # ℹ 27 more variables: smoothness_mean <dbl>, compactness_mean <dbl>,
    ## #   concavity_mean <dbl>, concave_points_mean <dbl>, symmetry_mean <dbl>,
    ## #   fractal_dimension_mean <dbl>, radius_se <dbl>, texture_se <dbl>,
    ## #   perimeter_se <dbl>, area_se <dbl>, smoothness_se <dbl>,
    ## #   compactness_se <dbl>, concavity_se <dbl>, concave_points_se <dbl>,
    ## #   symmetry_se <dbl>, fractal_dimension_se <dbl>, radius_worst <dbl>, …
…
The format of the table also makes it easy for me to answer my
questions. I just to need to select the columns based on the variables I
am interested in (e.g. diagnosis, radius_mean, texture_mean and
compactness_mean) and drop other irrelevant columns when addressing my
questions.

``` r
cancer_modified%>%
  select(ID, diagnosis, radius_mean, texture_mean, perimeter_mean,compactness_mean,texture_level,compactness_mean)
```

    ## # A tibble: 569 × 7
    ##          ID diagnosis radius_mean texture_mean perimeter_mean compactness_mean
    ##       <dbl> <chr>           <dbl>        <dbl>          <dbl>            <dbl>
    ##  1   842302 M                18.0         10.4          123.            0.278 
    ##  2   842517 M                20.6         17.8          133.            0.0786
    ##  3 84300903 M                19.7         21.2          130             0.160 
    ##  4 84348301 M                11.4         20.4           77.6           0.284 
    ##  5 84358402 M                20.3         14.3          135.            0.133 
    ##  6   843786 M                12.4         15.7           82.6           0.17  
    ##  7   844359 M                18.2         20.0          120.            0.109 
    ##  8 84458202 M                13.7         20.8           90.2           0.164 
    ##  9   844981 M                13           21.8           87.5           0.193 
    ## 10 84501001 M                12.5         24.0           84.0           0.240 
    ## # ℹ 559 more rows
    ## # ℹ 1 more variable: texture_level <fct>
…
``` r
#untidy the data 
cancer_untidy<-cancer_modified%>%
  select(ID, diagnosis, radius_mean,compact_level,texture_level)%>%
  pivot_wider(names_from=ID,
              values_from=texture_level)

#print out tidy and untidy dataset 
cancer_modified  
```

    ## # A tibble: 569 × 34
    ##          ID diagnosis radius_mean texture_mean perimeter_mean area_mean
    ##       <dbl> <chr>           <dbl>        <dbl>          <dbl>     <dbl>
    ##  1   842302 M                18.0         10.4          123.      1001 
    ##  2   842517 M                20.6         17.8          133.      1326 
    ##  3 84300903 M                19.7         21.2          130       1203 
    ##  4 84348301 M                11.4         20.4           77.6      386.
    ##  5 84358402 M                20.3         14.3          135.      1297 
    ##  6   843786 M                12.4         15.7           82.6      477.
    ##  7   844359 M                18.2         20.0          120.      1040 
    ##  8 84458202 M                13.7         20.8           90.2      578.
    ##  9   844981 M                13           21.8           87.5      520.
    ## 10 84501001 M                12.5         24.0           84.0      476.
    ## # ℹ 559 more rows
    ## # ℹ 28 more variables: smoothness_mean <dbl>, compactness_mean <dbl>,
    ## #   concavity_mean <dbl>, concave_points_mean <dbl>, symmetry_mean <dbl>,
    ## #   fractal_dimension_mean <dbl>, radius_se <dbl>, texture_se <dbl>,
    ## #   perimeter_se <dbl>, area_se <dbl>, smoothness_se <dbl>,
    ## #   compactness_se <dbl>, concavity_se <dbl>, concave_points_se <dbl>,
    ## #   symmetry_se <dbl>, fractal_dimension_se <dbl>, radius_worst <dbl>, …

``` r
cancer_untidy
```

    ## # A tibble: 535 × 572
    ##    diagnosis radius_mean compact_level `842302` `842517` `84300903` `84348301`
    ##    <chr>           <dbl> <fct>         <fct>    <fct>    <fct>      <fct>     
    ##  1 M                18.0 very high     low      <NA>     <NA>       <NA>      
    ##  2 M                20.6 moderate      <NA>     moderate <NA>       <NA>      
    ##  3 M                19.7 very high     <NA>     <NA>     high       <NA>      
    ##  4 M                11.4 very high     <NA>     <NA>     <NA>       high      
    ##  5 M                20.3 high          <NA>     <NA>     <NA>       <NA>      
    ##  6 M                12.4 very high     <NA>     <NA>     <NA>       <NA>      
    ##  7 M                18.2 moderate      <NA>     <NA>     <NA>       <NA>      
    ##  8 M                13.7 very high     <NA>     <NA>     <NA>       <NA>      
    ##  9 M                13   very high     <NA>     <NA>     <NA>       <NA>      
    ## 10 M                12.5 very high     <NA>     <NA>     <NA>       <NA>      
    ## # ℹ 525 more rows
    ## # ℹ 565 more variables: `84358402` <fct>, `843786` <fct>, `844359` <fct>,
    ## #   `84458202` <fct>, `844981` <fct>, `84501001` <fct>, `845636` <fct>,
    ## #   `84610002` <fct>, `846226` <fct>, `846381` <fct>, `84667401` <fct>,
    ## #   `84799002` <fct>, `848406` <fct>, `84862001` <fct>, `849014` <fct>,
    ## #   `8510426` <fct>, `8510653` <fct>, `8510824` <fct>, `8511133` <fct>,
    ## #   `851509` <fct>, `852552` <fct>, `852631` <fct>, `852763` <fct>, …

``` r
#Tidy it back to the original state
cancer_untidy%>%
    pivot_longer(col=!(diagnosis:compact_level),
      names_to="ID",
      values_to="texture_level",
      values_drop_na = TRUE)%>%
  relocate(ID,everything())
```

    ## # A tibble: 569 × 5
    ##    ID       diagnosis radius_mean compact_level texture_level
    ##    <chr>    <chr>           <dbl> <fct>         <fct>        
    ##  1 842302   M                18.0 very high     low          
    ##  2 842517   M                20.6 moderate      moderate     
    ##  3 84300903 M                19.7 very high     high         
    ##  4 84348301 M                11.4 very high     high         
    ##  5 84358402 M                20.3 high          moderate     
    ##  6 843786   M                12.4 very high     moderate     
    ##  7 844359   M                18.2 moderate      high         
    ##  8 84458202 M                13.7 very high     high         
    ##  9 844981   M                13   very high     high         
    ## 10 84501001 M                12.5 very high     very high    
    ## # ℹ 559 more rows
…
I also added a new variable compactness_mean group by malignant or
benign so I can compare if individual diagnosis is higher or lower than
the mean of the group.

``` r
changed_cancer1<-cancer_modified%>%
  select(diagnosis,compactness_mean,)%>%
  group_by(diagnosis)%>%
  mutate(mean_compact=mean(compactness_mean))

#print changed_cancer1
changed_cancer1
```

    ## # A tibble: 569 × 3
    ## # Groups:   diagnosis [2]
    ##    diagnosis compactness_mean mean_compact
    ##    <chr>                <dbl>        <dbl>
    ##  1 M                   0.278         0.145
    ##  2 M                   0.0786        0.145
    ##  3 M                   0.160         0.145
    ##  4 M                   0.284         0.145
    ##  5 M                   0.133         0.145
    ##  6 M                   0.17          0.145
    ##  7 M                   0.109         0.145
    ##  8 M                   0.164         0.145
    ##  9 M                   0.193         0.145
    ## 10 M                   0.240         0.145
    ## # ℹ 559 more rows
…
``` r
changed_cancer2<-cancer_sample%>%
  select(diagnosis,compactness_mean,radius_mean)%>%
  drop_na(compactness_mean,radius_mean)%>%
  rename(compactnessM=compactness_mean, radiusM=radius_mean)%>%
  mutate(mean_compact=mean(compactnessM),mean_radius=mean(radiusM))
#print out the data table. 
changed_cancer2
```

    ## # A tibble: 569 × 5
    ##    diagnosis compactnessM radiusM mean_compact mean_radius
    ##    <chr>            <dbl>   <dbl>        <dbl>       <dbl>
    ##  1 M               0.278     18.0        0.104        14.1
    ##  2 M               0.0786    20.6        0.104        14.1
    ##  3 M               0.160     19.7        0.104        14.1
    ##  4 M               0.284     11.4        0.104        14.1
    ##  5 M               0.133     20.3        0.104        14.1
    ##  6 M               0.17      12.4        0.104        14.1
    ##  7 M               0.109     18.2        0.104        14.1
    ##  8 M               0.164     13.7        0.104        14.1
    ##  9 M               0.193     13          0.104        14.1
    ## 10 M               0.240     12.5        0.104        14.1
    ## # ℹ 559 more rows
…
